{
    "name": "UserManagement",
    "alias": "usermanagement",
    "description": "",
    "keywords": [],
    "order": 0,
    "providers": [
        "Modules\\UserManagement\\Providers\\UserManagementServiceProvider"
    ],
    "aliases": {},
    "files": [
        "helpers.php"
    ],
    "requires": []
}
